<?xml version="1.0" encoding="utf-8"?>
<svg version="1.1" id="Layer_1" xmlns="http://www.w3.org/2000/svg" xmlns:xlink="http://www.w3.org/1999/xlink" x="0px" y="0px" viewBox="0 0 400 400" style="enable-background:new 0 0 400 400;" xml:space="preserve">
    <style type="text/css">
        .st0{
            display:inline;
            transform-origin: 200px 200px;
            -webkit-transform-origin: 200px 200px;
            animation: rotate 1s linear infinite;
            -webkit-animation: rotate 1s linear infinite;
        }
        @keyframes rotate {
            100% {
                transform: rotate(360deg);
            }
        }
        @-webkit-keyframes rotate {
            100% {
                -webkit-transform: rotate(360deg);
            }
        }
        .st1{display:inline;fill:#AFAFAF;}
        .st2{display:inline;opacity:0.8;fill:#CFCFCF;}
        .st3{display:inline;fill:#FFFFFF;}
        .st4{display:inline;fill:#525252;}
        .st5{fill:#FFFFFF;}
        .st6{fill:#991E20;}
    </style>
    <g class="st0">
        <path class="st1" d="M200,0.7C89.9,0.7,1,89.6,1,199.7s88.9,199,199,199s199-88.9,199-199S310.1,0.7,200,0.7z M200,362.5c-89.9,0-162.8-72.9-162.8-162.8S110.1,36.9,200,36.9s162.8,72.9,162.8,162.8S289.9,362.5,200,362.5z"/>
        <path class="st2" d="M200,0.7C89.9,0.7,1,89.6,1,199.7s88.9,199,199,199s199-88.9,199-199S310.1,0.7,200,0.7z M200,362.5c-89.9,0-162.8-72.9-162.8-162.8S110.1,36.9,200,36.9s162.8,72.9,162.8,162.8S289.9,362.5,200,362.5z"/>
        <circle class="st3" cx="200" cy="199.7" r="162.8"/>
        <path class="st4" d="M362.8,199.7H399c0-110.1-88.9-199-199-199v36.2C289.9,36.9,362.3,109.8,362.8,199.7z"/>
    </g>
    <g>
        <circle class="st5" cx="200" cy="199.7" r="162.8"/>
        <circle class="st6" cx="188.2" cy="99.5" r="22.1"/>
        <path class="st6" d="M206.6,138.1c-6.6,0-12.2,5.6-12.2,12.2s5.6,12.2,12.2,12.2s12.2-5.6,12.2-12.2C218.8,143.2,213.6,138.1,206.6,138.1z"/>
        <circle class="st6" cx="150.6" cy="154.1" r="19.3"/>
        <path class="st6" d="M337.4,210.5c-2.8-3.3-6.1-6.6-9.4-9.4c-32.5-26.8-85.2-26.8-117.1,0c-32.5,26.8-85.2,26.8-117.1,0c-15.1-12.2-23.1-28.2-24-44.7c-4.7,13.6-7.1,28.2-7.1,43.8c0,76.2,61.6,137.8,137.8,137.8C272.4,337.5,332.2,281.6,337.4,210.5z"/>
    </g>
</svg>
